cv32/tests/core/results/hello_world/waves.vcd
$date December 06, 2019 16:13:12
$end
$version DSim 20191112.4.0.inprog
$end
$timescale 1 ps $end
$scope module riscv_alu_basic $end
$var reg 36 8 adder_in_a[35:0] $end
$var reg 36 9 adder_in_b[35:0] $end
$var reg 32 6 adder_op_a[31:0] $end
$var reg 32 7 adder_op_b[31:0] $end
$var reg 1 5 adder_op_b_negate $end
$var reg 32 : adder_result[31:0] $end
$var reg 36 ; adder_result_expanded[35:0] $end
$var reg 32 4 bmask[31:0] $end
$var wire 5 ) bmask_a_i[4:0] $end
$var wire 5 * bmask_b_i[4:0] $end
$var wire 1 " clk $end
$var reg 4 J cmp_result[3:0] $end
$var reg 4 G cmp_signed[3:0] $end
$var reg 1 - comparison_result_o $end
$var wire 1 / ex_ready_i $end
$var wire 2 + imm_vec_ext_i[1:0] $end
$var reg 4 E is_equal[3:0] $end
$var reg 4 H is_equal_vec[3:0] $end
$var reg 4 F is_greater[3:0] $end
$var reg 4 I is_greater_vec[3:0] $end
$var wire 32 % operand_a_i[31:0] $end
$var reg 32 1 operand_a_neg[31:0] $end
$var reg 32 2 operand_a_neg_rev[31:0] $end
$var reg 32 0 operand_a_rev[31:0] $end
$var wire 32 & operand_b_i[31:0] $end
$var reg 32 3 operand_b_neg[31:0] $end
$var wire 32 ' operand_c_i[31:0] $end
$var wire 7 $ operator_i[6:0] $end
$var reg 1 . ready_o $end
$var reg 32 , result_o[31:0] $end
$var wire 1 # rst_n $end
$var reg 32 & shift_amt[31:0] $end
$var reg 32 ? shift_amt_int[31:0] $end
$var reg 32 > shift_amt_left[31:0] $end
$var reg 1 = shift_arithmetic $end
$var reg 1 < shift_left $end
$var reg 32 D shift_left_result[31:0] $end
$var reg 32 @ shift_op_a[31:0] $end
$var reg 33 A shift_op_a_ext[32:0] $end
$var reg 32 B shift_result[31:0] $end
$var reg 32 C shift_right_result[31:0] $end
$var wire 2 ( vector_mode_i[1:0] $end
$upscope $end
$scope module tb_top $end
$scope module riscv_wrapper_i $end
$scope module ram_i $end
$upscope $end
$scope module riscv_core_i $end
$upscope $end
$var wire 1 K clk_i $end
$var wire 1 f core_busy_o $end
$var reg 32 Z data_addr[31:0] $end
$var reg 4 \ data_be[3:0] $end
$var reg 1 X data_gnt $end
$var reg 32 ] data_rdata[31:0] $end
$var reg 1 W data_req $end
$var reg 1 Y data_rvalid $end
$var reg 32 ^ data_wdata[31:0] $end
$var reg 1 [ data_we $end
$var reg 1 _ debug_req_i $end
$var reg 1 Q exit_valid_o $end
$var reg 32 P exit_value_o[31:0] $end
$var wire 1 M fetch_enable_i $end
$var reg 32 U instr_addr[31:0] $end
$var reg 1 S instr_gnt $end
$var reg 128 V instr_rdata[127:0] $end
$var reg 1 R instr_req $end
$var reg 1 T instr_rvalid $end
$var reg 1 ` irq $end
$var reg 1 b irq_ack $end
$var reg 5 a irq_id_in[0:4] $end
$var reg 5 c irq_id_out[0:4] $end
$var reg 1 d irq_sec $end
$var wire 1 L rst_ni $end
$var wire 1 e sec_lvl_o $end
$var reg 1 O tests_failed_o $end
$var reg 1 N tests_passed_o $end
$upscope $end
$upscope $end
$enddefinitions $end
#0
$dumpvars
bx 8
bx 9
bx 6
bx 7
x5
bx :
bx ;
bx 4
bz )
bz *
z"
bx J
bx G
x-
z/
bz +
bx E
bx H
bx F
bx I
bz %
bx 1
bx 2
bx 0
bz &
bx 3
bz '
bz $
x.
bx ,
z#
bz &
bx ?
bx >
x=
x<
bx D
bx @
bx A
bx B
bx C
bz (
xK
xf
bx Z
bx \
xX
bx ]
xW
xY
bx ^
x[
x_
xQ
bx P
xM
bx U
xS
bx V
xR
xT
x`
xb
bx a
bx c
xd
xL
xe
xO
xN
$end
bz 0
bz >
b0 G
1.
1M
1K
0L
0d
0_
0b
0N
0O
b0 P
0Q
0W
0R
bx11 a
b0 ]
0X
0Y
0S
b0 U
0[
b0 c
0f
1e
b1111 \
b0 Z
b0 ^
b11111 a
0`
bx ]
0T
#5000
0K
#10000
1K
b0100111010000000000000001101111001001111000000000000000011011110010011111000000000000000110111100101001000000000000000001101111 V
#15000
0K
#20000
1K
#25000
0K
#30000
1K
#35000
0K
#40000
1K
#41000
1L
#45000
0K
#50000
1K
1f
1R
1S
b010000000 U
#55000
0K
#60000
1K
1T
b0111011100000010000000100010011000000000000000001000001000101111011001110000001100000011001001100000000000000000100000110010111 V
0R
0S
#65000
0K
#70000
1K
0T
#75000
0K
#80000
1K
b0100000010000000 Z
#85000
0K
#90000
1K
b011101110111000 Z
1R
1S
b010010000 U
#95000
0K
#100000
1K
b0100000010001000 Z
1T
b0100010000011000010100010011001100000101010100010000011100111111011100000101000001010001001100000000000000000000010100010111 V
0R
0S
#105000
0K
#110000
1K
b0100010001000000 Z
0T
#115000
0K
#120000
1K
b010010000 Z
#125000
0K
#130000
1K
b0 Z
1R
1S
b010100000 U
#135000
0K
#140000
1K
b1110 \
b01100000101 Z
1T
b0101000100110000000000000000000001010001011100100110010001010100010110000001100011100000100100000111110000011000011000010011 V
0R
0S
#145000
0K
#150000
1K
b1111 \
b011101111111100 Z
0T
#155000
0K
#160000
1K
b011110000110100 Z
#165000
0K
#170000
1K
b0111100000110000 Z
#175000
0K
#180000
1K
b0 Z
1R
1S
b010001000000 U
#185000
0K
#190000
1K
b1100 \
b010101010 Z
1T
b01010000011100010011000000001111000000000011000100110000000000000000100000000110011100000001000000010000000100010011 V
0R
0S
#195000
0K
#200000
1K
0T
1R
1S
b010001010000 U
#205000
0K
#210000
1K
b1000 \
b01111 Z
1T
b01000000001011001001001100011000010100000011110010000011000110000000011110111011101111001001100000010110000110111111001100011 V
0R
0S
#215000
0K
#220000
1K
b1111 \
b011101111111100 Z
0T
#225000
0K
#230000
1K
b1000 \
b01000111 Z
b10001100000000000000000000000100 ^
#235000
0K
#240000
1K
b011110000001011 Z
b0 ^
1R
1S
b010001100000 U
#245000
0K
#250000
1K
b1111 \
b01100 Z
b010011111000 ^
1T
b0101101110010000000100011000000001110011010000110101100110000000011110110011101100001001111111111000001100111011010010011 V
b010011110000 U
#255000
0K
#260000
1K
b01010010111000000000010011110010110100100111111011011011111111100000110111100000000110101011110010110110011 V
0R
0S
#265000
0K
#270000
1K
b0 Z
b010011100000 ^
0T
1R
1S
b010100000000 U
#275000
0K
#280000
1K
b1100 \
b01110 Z
b0 ^
1T
b0101000000010010011111110100000011010000000111001110000000000000000100000101001001100000000010101101000011010110011 V
0R
0S
#285000
0K
#290000
1K
b1111 \
b010011111100 Z
0T
#295000
0K
#300000
1K
b010100101100 Z
#305000
0K
#310000
1K
b1100 \
b010101010 Z
1R
1S
b01000010100000000 U
b010011000000 U
#315000
0K
#320000
1K
b1111 \
b010100001100 Z
1T
b0101101110000000110100011000000001011011100000010001000110000000010110111000000101010001100000000101101110000001100100011 V
b010011010000 U
#325000
0K
#330000
1K
b01000000001100111000000001011011100000000001000110000000010110111000000001010001100000000101101110000000100100011 V
0R
0S
#335000
0K
#340000
1K
1[
b1000 \
b011101111111111 Z
1W
0T
1X
#345000
0K
#350000
1K
b0100 \
b011101111111110 Z
0W
0X
1Y
1W
1X
#355000
0K
#360000
1K
b010 \
b011101111111101 Z
1R
1S
b010011100000 U
#365000
0K
#370000
1K
b01 \
b011101111111100 Z
1T
b01000001011001011010010011000000001101010111100101101100110000000010000101100101101001001100001111111101011111010110010011 V
b01110000110011100000 U
b010100000000 U
#375000
0K
#380000
1K
b010011100000 Z
0W
0X
b0101000000010010011111110100000011010000000111001110000000000000000100000101001001100000000010101101000011010110011 V
b010100010000 U
#385000
0K
#390000
1K
0Y
b11110110110000110111100011100011000000001111011000000110001100110100000011110111000001110011001111111111000001111000011110010011 V
0R
0S
#395000
0K
#400000
1K
b0100 \
b010101010 Z
0T
#405000
0K
#410000
1K
b01 \
b11111111111111111111111111111100 Z
#415000
0K
#420000
1K
b011101111111000 Z
1R
1S
b010100100000 U
#425000
0K
#430000
1K
b0110100 Z
1T
b01010000010000010011000000101000000100101100001000111111110000000001000000010001001111110011110111111111000001101111 V
0R
0S
#435000
0K
#440000
1K
b1000 \
b01000011 Z
b10001100000000000000000000000100 ^
0T
1R
1S
b010010000000 U
b010001010000 U
#445000
0K
#450000
1K
b01 \
b010100100100 Z
b0 ^
1T
b01000000001011001001001100011000010100000011110010000011000110000000011110111011101111001001100000010110000110111111001100011 V
b010001100000 U
#455000
0K
#460000
1K
b0101101110010000000100011000000001110011010000110101100110000000011110110011101100001001111111111000001100111011010010011 V
0R
0S
#465000
0K
#470000
1K
b0 Z
b010011100000 ^
0T
#475000
0K
#480000
1K
b0100100 Z
b0 ^
#485000
0K
#490000
1K
b1000 \
b01000011 Z
1R
1S
b010001110000 U
#495000
0K
#500000
1K
b01 \
b011110000110000 Z
1T
b01000001110000011100010011000000001011011100100110001000110000000010110111001001000010001100000000101101110010001000100011 V
0R
0S
#505000
0K
#510000
1K
b1111 \
b011110000000000 Z
1W
0T
1X
#515000
0K
#520000
1K
b011110000000100 Z
0W
0X
1Y
1W
1X
#525000
0K
#530000
1K
b011110000001000 Z
1R
1S
b010010000000 U
#535000
0K
#540000
1K
b011110000001100 Z
1T
b01000000110000110000011010110011000000000000000010000000011001110000000000000110000101000110001111111110110101110110011011100011 V
0R
0S
#545000
0K
#550000
1K
b011110000010000 Z
0W
0X
0T
#555000
0K
#560000
1K
b0111100001000000 Z
b010001101100 ^
0Y
1R
1S
b010001100000 U
#565000
0K
#570000
1K
1T
b0101101110010000000100011000000001110011010000110101100110000000011110110011101100001001111111111000001100111011010010011 V
b010001110000 U
#575000
0K
#580000
1K
b0100 Z
b010010001100 ^
b01000001110000011100010011000000001011011100100110001000110000000010110111001001000010001100000000101101110010001000100011 V
0R
0S
#585000
0K
#590000
1K
b011110000010000 Z
b0 ^
1W
0T
1X
#595000
0K
#600000
1K
b011110000010100 Z
0W
0X
1Y
1W
1X
#605000
0K
#610000
1K
b011110000011000 Z
1R
1S
b010010000000 U
#615000
0K
#620000
1K
b011110000011100 Z
1T
b01000000110000110000011010110011000000000000000010000000011001110000000000000110000101000110001111111110110101110110011011100011 V
0R
0S
#625000
0K
#630000
1K
b011110000100000 Z
0W
0X
0T
#635000
0K
#640000
1K
b0111100001010000 Z
b010001101100 ^
0Y
1R
1S
b010001100000 U
#645000
0K
#650000
1K
1T
b0101101110010000000100011000000001110011010000110101100110000000011110110011101100001001111111111000001100111011010010011 V
b010001110000 U
#655000
0K
#660000
1K
b0100 Z
b010010001100 ^
b01000001110000011100010011000000001011011100100110001000110000000010110111001001000010001100000000101101110010001000100011 V
0R
0S
#665000
0K
#670000
1K
b011110000100000 Z
b0 ^
1W
0T
1X
#675000
0K
#680000
1K
b011110000100100 Z
0W
0X
1Y
1W
1X
#685000
0K
#690000
1K
b011110000101000 Z
1R
1S
b010010000000 U
#695000
0K
#700000
1K
b011110000101100 Z
1T
b01000000110000110000011010110011000000000000000010000000011001110000000000000110000101000110001111111110110101110110011011100011 V
0R
0S
#705000
0K
#710000
1K
b011110000110000 Z
0W
0X
0T
#715000
0K
#720000
1K
b0111100001100000 Z
b010001101100 ^
0Y
#725000
0K
#730000
1K
b0100 Z
b010010001100 ^
1R
1S
#735000
0K
#740000
1K
1T
b010010010000 U
#745000
0K
#750000
1K
b010010001100 Z
b0 ^
b0110001101000000001100111000000000101011010000110101100110000000000000000000000101001011100000000001001101001011010010011 V
0R
0S
#755000
0K
#760000
1K
b1000 \
b010011 Z
0T
#765000
0K
#770000
1K
b1110 \
b01101 Z
#775000
0K
#780000
1K
b1111 \
b010010010100 Z
1R
1S
b010010100000 U
#785000
0K
#790000
1K
b010011000000 Z
1T
b0101101110000010110100011000000001011011100000110001000110000000010110111000001101010001100000000101101110000011100100011 V
b01101000110010010000 U
0R
0S
b010010100000 U
#795000
0K
#800000
1K
0T
1R
1S
b0110000 U
b010011000000 U
#805000
0K
#810000
1K
b010010100000 Z
1T
b0101101110000000110100011000000001011011100000010001000110000000010110111000000101010001100000000101101110000001100100011 V
b010011010000 U
#815000
0K
#820000
1K
b01000000001100111000000001011011100000000001000110000000010110111000000001010001100000000101101110000000100100011 V
0R
0S
#825000
0K
#830000
1K
b1000 \
b011110000110011 Z
1W
0T
1X
#835000
0K
#840000
1K
b0100 \
b011110000110010 Z
0W
0X
1Y
1W
1X
#845000
0K
#850000
1K
b010 \
b011110000110001 Z
1R
1S
b010011100000 U
#855000
0K
#860000
1K
b01 \
b011110000110000 Z
1T
b01000001011001011010010011000000001101010111100101101100110000000010000101100101101001001100001111111101011111010110010011 V
b01110000110011100000 U
b010100000 U
#865000
0K
#870000
1K
b010011100000 Z
0W
0X
b0101000100110000000000000000000001010001011100100110010001010100010110000001100011100000100100000111110000011000011000010011 V
0R
0S
b010110000 U
#875000
0K
#880000
1K
0Y
0T
b10100100100011010010000000100001010001100000000100000000010011000100010100000010001011001110010100101100101010010010101001100101 V
1R
1S
#885000
0K
#890000
1K
b0100 \
b010101010 Z
1T
0R
0S
#895000
0K
#900000
1K
0T
#905000
0K
#910000
1K
b01 \
b01101010000 Z
1R
1S
b01010000001101010000 U
b01100000000 U
#915000
0K
#920000
1K
b010110100 Z
1T
b01010000010110010011001100000010000000000000011100110011000000100000000000000111001100110100000101010001000001110011 V
b01100010000 U
#925000
0K
#930000
1K
b01001011100000000000000001101111000000000000000000000101000100110000000000000000000001100001001100000000000000000000011010010011 V
0R
0S
#935000
0K
#940000
1K
b01101010000 Z
0T
#945000
0K
#950000
1K
b0 Z
#955000
0K
#960000
1K
1R
1S
b01100100000 U
#965000
0K
#970000
1K
1T
b0100010010011000100011000000001000000100100100001000110000000000000000000001011001001111111111000000010000000100010011 V
b01100010000 U
b011111010000 U
#975000
0K
#980000
1K
b01100100000 Z
b0100000001111000110001100011000101001000011100100111100000110000001100000001101001110000001100000000000000001000000001100111 V
0R
0S
#985000
0K
#990000
1K
0T
#995000
0K
#1000000
1K
0[
b1111 \
b011101111101000 Z
1W
1X
1R
1S
b011111100000 U
#1005000
0K
#1010000
1K
0W
0X
1Y
1T
b01001110001100000010011000001101110100001001110011000110000000111110000000010000001001100000000010001111010011100000011 V
b011001110111000 ]
0R
0S
#1015000
0K
#1020000
1K
b011010100000000 Z
1W
0Y
0T
1X
#1025000
0K
#1030000
1K
0W
0X
1Y
b0 ]
#1035000
0K
#1040000
1K
b0 Z
b0100000110100 ^
0Y
1R
1S
b0100000110000 U
#1045000
0K
#1050000
1K
1T
b11111010010111111111000001101111000101001111011100100100001000110001010011000111000001111001001100000000000000001000000001100111 V
0R
0S
#1055000
0K
#1060000
1K
b0100 Z
b0 ^
0T
#1065000
0K
#1070000
1K
b011010100000100 Z
1R
1S
b0100001000000 U
#1075000
0K
#1080000
1K
1[
b011010100000000 Z
b011010100000100 ^
1W
1T
b0110001101110011000110011000000001110011110100010001000110000000000010111000001110001001100011000110001111010011010000011 V
1X
b01110011000110000000 U
b011111100000 U
#1085000
0K
#1090000
1K
b0100001000000 Z
b0 ^
0W
0X
1Y
b01001110001100000010011000001101110100001001110011000110000000111110000000010000001001100000000010001111010011100000011 V
0R
0S
#1095000
0K
#1100000
1K
0Y
0T
#1105000
0K
#1110000
1K
0[
b011010100001000 Z
1W
1X
#1115000
0K
#1120000
1K
b1000 \
b011111 Z
0W
0X
1Y
1R
1S
b011111110000 U
#1125000
0K
#1130000
1K
b01100100000000000000000000001000 ^
0Y
1T
b011000100001111010100010000011000010001100001100100100001000110000000100000111100000110011001100000010000001010000011001100011 V
0R
0S
#1135000
0K
#1140000
1K
b1100 \
b010 Z
b0 ^
0T
#1145000
0K
#1150000
1K
b1111 \
b0 Z
b0100000011100 ^
1R
1S
b0100000010000 U
#1155000
0K
#1160000
1K
1T
b0101110000011100010011000000101101010100000100011000110000000000100000000001101001001100010000110100110010010000100011 V
b0100000100000 U
#1165000
0K
#1170000
1K
b011010100000100 Z
b0 ^
b010100010011000000001011011110100100001000110000000100000111100001111011001100000000111001111010001000100011 V
0R
0S
#1175000
0K
#1180000
1K
b1110 \
b01 Z
0T
#1185000
0K
#1190000
1K
1[
b1111 \
b011010100001000 Z
b01 ^
1W
1X
#1195000
0K
#1200000
1K
b011010100000100 Z
b0 ^
0W
0X
1Y
1R
1S
b0100000110000 U
#1205000
0K
#1210000
1K
b011010100001100 Z
b01101010000 ^
1W
0Y
1T
b11111010010111111111000001101111000101001111011100100100001000110001010011000111000001111001001100000000000000001000000001100111 V
1X
0R
0S
#1215000
0K
#1220000
1K
b0 Z
b0 ^
0W
0X
1Y
0T
1R
1S
b0100000100000 U
b010110000 U
#1225000
0K
#1230000
1K
b0100000110100 Z
0Y
1T
b10100100100011010010000000100001010001100000000100000000010011000100010100000010001011001110010100101100101010010010101001100101 V
0R
0S
#1235000
0K
#1240000
1K
0T
1R
1S
b01110100000 U
#1245000
0K
#1250000
1K
b1100 \
b010110110 Z
1T
b11111111000000010000000100010011000000000000000010000000011001110000000100000001000000010001001100000000010000010010010010000011 V
b01110110000 U
#1255000
0K
#1260000
1K
b011100100110111000000000000000000110100001101110000000100100001001000000010001100000000100000010010010000100011 V
0R
0S
#1265000
0K
#1270000
1K
b1111 \
b0100010000110000 Z
0T
#1275000
0K
#1280000
1K
b0100010000111000 Z
1W
1X
#1285000
0K
#1290000
1K
b0100010000110000 Z
0W
0X
1Y
1W
1X
1R
1S
b01111000000 U
#1295000
0K
#1300000
1K
b011000000000000 Z
0W
0X
1T
b0100010010011000100011010000001111100100001001001100110011101100001001000010010001001100111011000001000000011110010011 V
0R
0S
#1305000
0K
#1310000
1K
0Y
0T
#1315000
0K
#1320000
1K
b011001110110000 Z
#1325000
0K
#1330000
1K
1R
1S
b01111010000 U
#1335000
0K
#1340000
1K
b0110011101100000 Z
1T
b0111011000001000000010000010011000000100000100100000000011000110100000000101001010110010001001100000000100100010010001000100011 V
0R
0S
#1345000
0K
#1350000
1K
b0100010000111100 Z
b010110110 ^
1W
0T
1X
#1355000
0K
#1360000
1K
b0100010000110100 Z
b0 ^
0W
0X
1Y
1W
1X
#1365000
0K
#1370000
1K
b1100 \
b010000000010 Z
0W
0X
1R
1S
b01111100000 U
#1375000
0K
#1380000
1K
b1111 \
b0 Z
b01111111000 ^
0Y
1T
b010001000000010000010011000000000001010010000100100100110000000000000100001001111000001100000000000000000000010010010011 V
b01111110000 U
#1385000
0K
#1390000
1K
b011100100110111000000000000000000110100001101111111111010011001000110001110001100000000000001111000000011100111 V
0R
0S
#1395000
0K
#1400000
1K
b011001110110000 Z
b0 ^
0T
1R
1S
b010000000000 U
#1405000
0K
#1410000
1K
b011000000000000 Z
1T
b01000000001010010101100100010011010000001111100100001001001100110011101101001001000010010001001100111011000001000000011110010011 V
0R
0S
#1415000
0K
#1420000
1K
0T
#1425000
0K
#1430000
1K
b011001110110000 Z
#1435000
0K
#1440000
1K
b011001110110100 Z
1R
1S
b010000010000 U
#1445000
0K
#1450000
1K
b0110011101100100 Z
1T
b01000010011110000011000000000000000000000100100100110011101100000100000001000001001100000010000010010000000001100011 V
0R
0S
#1455000
0K
#1460000
1K
b1100 \
b010000000110 Z
0T
#1465000
0K
#1470000
1K
b1110 \
b01 Z
b01000011000000000000 ^
#1475000
0K
#1480000
1K
b1111 \
b011001110110000 Z
b0 ^
1R
1S
b010000100000 U
#1485000
0K
#1490000
1K
b0 Z
1T
b11111110100110010001100011100011000000000000011110000000111001110000000001000100000001000001001100000000000101001000010010010011 V
0R
0S
#1495000
0K
#1500000
1K
0[
b011001110110000 Z
1W
0T
1X
#1505000
0K
#1510000
1K
b1110 \
b01 Z
0W
0X
1Y
b011011100 ]
#1515000
0K
#1520000
1K
b1111 \
b011001110110100 Z
0Y
1R
1S
b01000000010000100000 U
b011010000 U
#1525000
0K
#1530000
1K
b010000101100 Z
1T
b011110110111100000001000001000000001010000010100010100000001010000001011001000100011000011010010100011000101 V
b011100000 U
#1535000
0K
#1540000
1K
b0100010000000000000000001101111001101010000000000000101000100110000000000000111100001100110001100000000000001111000011110010011 V
0R
0S
#1545000
0K
#1550000
1K
b0 Z
0T
#1555000
0K
#1560000
1K
#1565000
0K
#1570000
1K
b011110000 ^
1R
1S
b011110000 U
#1575000
0K
#1580000
1K
1T
b11000111000000110001000000000000000001101011011100101101010001111000011110010011011001111000110100000000000000001000000001100111 V
0R
0S
#1585000
0K
#1590000
1K
b01101010000 Z
b0 ^
0T
1R
1S
b010000110000 U
b010000100000 U
#1595000
0K
#1600000
1K
b011110100 Z
1T
b11111110100110010001100011100011000000000000011110000000111001110000000001000100000001000001001100000000000101001000010010010011 V
b010000110000 U
#1605000
0K
#1610000
1K
b010010100100000011000000000100000100100100100000110000000010000001001001000000001100000000110000010010000010000011 V
0R
0S
#1615000
0K
#1620000
1K
b1100 \
b010 Z
b0100000111000000000000000000 ^
0T
#1625000
0K
#1630000
1K
b1111 \
b0100010000111100 Z
b0 ^
1W
1X
#1635000
0K
#1640000
1K
b0100010000111000 Z
0W
0X
1Y
b010110110 ]
1W
1X
1R
1S
b010001000000 U
#1645000
0K
#1650000
1K
b0100010000110100 Z
b0 ]
1T
b01010000011100010011000000001111000000000011000100110000000000000000100000000110011100000001000000010000000100010011 V
0R
0S
#1655000
0K
#1660000
1K
b0100010000110000 Z
0T
#1665000
0K
#1670000
1K
b0100010001000000 Z
0W
0X
1R
1S
b010000010001010000 U
b010110000 U
#1675000
0K
#1680000
1K
b010001001000 Z
0Y
1T
b10100100100011010010000000100001010001100000000100000000010011000100010100000010001011001110010100101100101010010010101001100101 V
0R
0S
#1685000
0K
#1690000
1K
0T
#1695000
0K
#1700000
1K
b0100010001000000 Z
1W
1X
#1705000
0K
#1710000
1K
b0100010001000100 Z
0W
0X
1Y
bx ]
1R
1S
b011000000 U
#1715000
0K
#1720000
1K
b0 Z
0Y
1T
b01010001001101100101000011010000000000000000000000000111001111000110000001100001000101000001xxxxxxxxxxxxxxxx1000000010000010 V
b010110000 U
b011000000 U
#1725000
0K
#1730000
1K
b1100 \
b010111110 Z
0R
0S
#1735000
0K
#1740000
1K
0T
#1745000
0K
#1750000
1K
b1111 \
b0100010000110000 Z
#1755000
0K
#1760000
1K
1[
b0100010000111100 Z
b010111110 ^
1W
1X
1R
1S
b011010000 U
#1765000
0K
#1770000
1K
0W
0X
1Y
1T
b011110110111100000001000001000000001010000010100010100000001010000001011001000100011000011010010100011000101 V
0R
0S
#1775000
0K
#1780000
1K
0Y
0T
1R
1S
b0 U
#1785000
0K
#1790000
1K
1T
b0100111010000000000000001101111001001111000000000000000011011110010011111000000000000000110111100101001000000000000000001101111 V
0R
0S
#1795000
0K
#1800000
1K
b0 Z
b0 ^
0T
1R
1S
b011000000 U
b01010010000 U
#1805000
0K
#1810000
1K
b0100 Z
1T
b01000000000001100010011000000000001001011010010100100110000000000010010100100101001001100110100001000000010001011110011 V
0R
0S
#1815000
0K
#1820000
1K
0T
#1825000
0K
#1830000
1K
b1100 \
b01101000010 Z
#1835000
0K
#1840000
1K
b1111 \
b01100 Z
1R
1S
b01010100000 U
#1845000
0K
#1850000
1K
b1000 \
b010111 Z
1T
b01100000000001100010011000000000110001010001000011000110000000010110000000000110001001100000010011000101000110001100011 V
0R
0S
#1855000
0K
#1860000
1K
b1100 \
b010 Z
0T
#1865000
0K
#1870000
1K
b1110 \
b01101 Z
b0101101100000000000 ^
#1875000
0K
#1880000
1K
b1000 \
b01011 Z
b0 ^
1R
1S
b01010110000 U
#1885000
0K
#1890000
1K
b1100 \
b010110 Z
b010101110000000000000000000 ^
1T
b0110111001010000010100010011000000000000000000110101000101110000001101000000000000000110111100000000011000101000110001100011 V
#1895000
0K
#1900000
1K
0R
0S
#1905000
0K
#1910000
1K
b1000 \
b011 Z
b0 ^
0T
1R
1S
b01011000000 U
#1915000
0K
#1920000
1K
b1111 \
b011001010111000 Z
1T
b0111111101010000010100010011000000000000000000110101000101110000001101000000000000000110111100110011010000000000000011101111 V
0R
0S
#1925000
0K
#1930000
1K
b1100 \
b011001100100110 Z
0T
1R
1S
b01010000001100100000 U
b010111110000 U
#1935000
0K
#1940000
1K
b1111 \
b01011000100 Z
1T
b11110010100111111111000001101111000000111000000110100101000000110000000000000101000001011001001111111001010111111111000001101111 V
0R
0S
#1945000
0K
#1950000
1K
0T
#1955000
0K
#1960000
1K
b1100 \
b011001100100110 Z
1R
1S
b011000000000 U
#1965000
0K
#1970000
1K
0[
b1111 \
b011101111110000 Z
1W
1T
b01011010010110000011000000000000010110000100000100110000000010000001001001000010001111111111000000010000000100010011 V
1X
b011010011000110000 U
b010100100000 U
#1975000
0K
#1980000
1K
b011000000000 Z
0W
0X
1Y
b011001110111000 ]
b01010000010000010011000000101000000100101100001000111111110000000001000000010001001111110011110111111111000001101111 V
0R
0S
#1985000
0K
#1990000
1K
0Y
0T
#1995000
0K
#2000000
1K
b0100001111110000 Z
1R
1S
b010100110000 U
#2005000
0K
#2010000
1K
1[
b0100010000101000 Z
1W
1T
b01011000010010010011000000100001000100101110001000110000001010010001001010100010001100000000000001011000010100010011 V
1X
0R
0S
#2015000
0K
#2020000
1K
b011001110111000 Z
0W
0X
1Y
0T
#2025000
0K
#2030000
1K
b1100 \
b011001100100110 Z
0Y
#2035000
0K
#2040000
1K
b1111 \
b0100010000100100 Z
1W
1X
1R
1S
b010101000000 U
#2045000
0K
#2050000
1K
b0100010000101100 Z
b01011000100 ^
0W
0X
1Y
1T
b010111100010010010000100011001110101100011110000111100100110000000000000000001101111011011100100000100000000000000011101111 V
1W
1X
0R
0S
#2055000
0K
#2060000
1K
b1100 \
b011001100100110 Z
b0 ^
0W
0X
0T
1R
1S
b01011000010100110000 U
b011101000000 U
#2065000
0K
#2070000
1K
b1111 \
b010101000100 Z
0Y
1T
b01010000011100010011000000000011010101110111100100110000000000000000100000000110011100000000000000001000000001100111 V
0R
0S
#2075000
0K
#2080000
1K
0T
1R
1S
b011101010000 U
#2085000
0K
#2090000
1K
b1110 \
b011001100101001 Z
1T
b11111111111100000000010110010011111101111111011010000110100100110111111101111111100001101011011100000100000001111001110001100011 V
0R
0S
#2095000
0K
#2100000
1K
b1100 \
b011001100100110 Z
0T
#2105000
0K
#2110000
1K
b010 Z
b0111101010000000000000000000 ^
1R
1S
b011110100000 U
#2115000
0K
#2120000
1K
1T
b0101110000011100010011000000000000011101000111100000111111101000000110100010001110001100000000000000001000000001100111 V
0R
0S
#2125000
0K
#2130000
1K
b1111 \
b01111111011111111000000000000000 Z
b0 ^
0T
1R
1S
b011110110000 U
#2135000
0K
#2140000
1K
0[
b0100 \
b011001100100110 Z
1W
1T
b11111111111101110000010100010011010000001010011100000111001100111111111000000111100110001110001100000000001101110111011010010011 V
1X
0R
0S
#2145000
0K
#2150000
1K
b1000 \
b011001100100111 Z
0W
0X
1Y
b01100011011001010000000000001010 ]
0T
#2155000
0K
#2160000
1K
b0100 \
b011001100101010 Z
0Y
#2165000
0K
#2170000
1K
b010 \
b01100101 Z
b01111010010000000000 ^
1R
1S
b011110100000 U
#2175000
0K
#2180000
1K
1T
b0101110000011100010011000000000000011101000111100000111111101000000110100010001110001100000000000000001000000001100111 V
0R
0S
#2185000
0K
#2190000
1K
b0110011001001101 Z
b0 ^
0T
#2195000
0K
#2200000
1K
b1000 \
b011 Z
b01010100000000000000000000000111 ^
1R
1S
b011110110000 U
#2205000
0K
#2210000
1K
b011001100100111 Z
b0 ^
1W
1T
b11111111111101110000010100010011010000001010011100000111001100111111111000000111100110001110001100000000001101110111011010010011 V
1X
0R
0S
#2215000
0K
#2220000
1K
b01 \
b011001100101000 Z
0W
0X
1Y
0T
#2225000
0K
#2230000
1K
b1000 \
b011001100101011 Z
0Y
#2235000
0K
#2240000
1K
b01100011 Z
b10100100000000000000000000000111 ^
1R
1S
b011110100000 U
#2245000
0K
#2250000
1K
1T
b0101110000011100010011000000000000011101000111100000111111101000000110100010001110001100000000000000001000000001100111 V
0R
0S
#2255000
0K
#2260000
1K
b0100 \
b0110011001001110 Z
b0 ^
0T
#2265000
0K
#2270000
1K
b01 \
b0 Z
b011101010100 ^
1R
1S
b011101010000 U
#2275000
0K
#2280000
1K
1T
b11111111111100000000010110010011111101111111011010000110100100110111111101111111100001101011011100000100000001111001110001100011 V
0R
0S
#2285000
0K
#2290000
1K
b011001100101000 Z
b0 ^
0T
#2295000
0K
#2300000
1K
b01111111011111111000000000000000 Z
1R
1S
b011101100000 U
#2305000
0K
#2310000
1K
b1000 \
b01111111011111110111111101111111 Z
1T
b0110101111000011110110011000000001101011001110111101100110000000001000111000001110001001100000000000001110010011000000011 V
0R
0S
#2315000
0K
#2320000
1K
b11111111111111111111111111111111 Z
0T
#2325000
0K
#2330000
1K
b1111 \
b011001100101000 Z
1W
1X
#2335000
0K
#2340000
1K
b011001100101100 Z
0W
0X
1Y
b0100000011011000110110001100001 ]
1R
1S
b011101110000 U
#2345000
0K
#2350000
1K
b10011111111010111110101111100000 Z
0Y
1T
b11111111110001110100011010000011111111101011011110000100111000110000000011010111111001111011001100000000110001111110011110110011 V
0R
0S
#2355000
0K
#2360000
1K
0T
#2365000
0K
#2370000
1K
b1110 \
b11000000010110000101100001000001 Z
#2375000
0K
#2380000
1K
b1111 \
b0111111011011110110111101100000 Z
1R
1S
b011110000000 U
#2385000
0K
#2390000
1K
b1100 \
b11111111111111111111111111111110 Z
b0111011000000000000000000000 ^
1T
b0100000001101000000001100011010000001010011100000111001100111111111111100111010001111000001111111111110101110100011000000011 V
b011101100000 U
#2395000
0K
#2400000
1K
b0110101111000011110110011000000001101011001110111101100110000000001000111000001110001001100000000000001110010011000000011 V
0R
0S
#2405000
0K
#2410000
1K
b1111 \
b011001100101000 Z
b0 ^
0T
#2415000
0K
